%YAML 1.1
%TAG !u! tag:unity3d.com,2011:
--- !u!114 &11400000
MonoBehaviour:
  m_ObjectHideFlags: 0
  m_CorrespondingSourceObject: {fileID: 0}
  m_PrefabInstance: {fileID: 0}
  m_PrefabAsset: {fileID: 0}
  m_GameObject: {fileID: 0}
  m_Enabled: 1
  m_EditorHideFlags: 0
  m_Script: {fileID: 11500000, guid: 329dca3bf78fcdd42b2df941673db76f, type: 3}
  m_Name: BlendShape
  m_EditorClassIdentifier: 
  Clips:
  - {fileID: 11400000, guid: 8ccfa96f398d0904d8045776d2defda5, type: 2}
  - {fileID: 11400000, guid: 248240b5c58310342a9d78fa40cf6b7f, type: 2}
  - {fileID: 11400000, guid: 3af440683ff242548889784157e1d2d7, type: 2}
  - {fileID: 11400000, guid: cafc089c8cab9da43afbeeecd1eb62b3, type: 2}
  - {fileID: 11400000, guid: 1122c85c0208f824f84eaddb70c9df6e, type: 2}
  - {fileID: 11400000, guid: 1999273f59acd0a4b8c0c7572869c573, type: 2}
  - {fileID: 11400000, guid: cf4e85e260d48ba45b8d054ca4b0331a, type: 2}
  - {fileID: 11400000, guid: e820037389836ec4597ddfd8406703d1, type: 2}
  - {fileID: 11400000, guid: 098bc104146bc594383499f030ea9981, type: 2}
  - {fileID: 11400000, guid: f863eba57fabb8545893f4d280e54f70, type: 2}
  - {fileID: 11400000, guid: df3a5f9b04ae1f546a5b80189f4692c6, type: 2}
  - {fileID: 11400000, guid: d8aedff3e0482644e8fd0bb528803886, type: 2}
  - {fileID: 11400000, guid: 694b35eb30316c94eb6081a25b0e4bb2, type: 2}
  - {fileID: 11400000, guid: 31944db838f377f4aad110591040f370, type: 2}
  - {fileID: 11400000, guid: 73d67f06ade5cc347b2a41f6d287ab47, type: 2}
  - {fileID: 11400000, guid: fae559c6e68787a4ebb98da0ba495a95, type: 2}
  - {fileID: 11400000, guid: b5064d577790fb04c9575b68d9a3569b, type: 2}
  - {fileID: 11400000, guid: aa7157e29ec542a49996fcc7cda8693d, type: 2}
