%YAML 1.1
%TAG !u! tag:unity3d.com,2011:
--- !u!21 &2100000
Material:
  serializedVersion: 8
  m_ObjectHideFlags: 0
  m_CorrespondingSourceObject: {fileID: 0}
  m_PrefabInstance: {fileID: 0}
  m_PrefabAsset: {fileID: 0}
  m_Name: N00_007_01_Tops_01_CLOTH_01 (Instance)
  m_Shader: {fileID: 4800000, guid: 1a97144e4ad27a04aafd70f7b915cedb, type: 3}
  m_ValidKeywords:
  - MTOON_OUTLINE_COLOR_FIXED
  - MTOON_OUTLINE_WIDTH_WORLD
  - _ALPHATEST_ON
  - _NORMALMAP
  m_InvalidKeywords: []
  m_LightmapFlags: 4
  m_EnableInstancingVariants: 0
  m_DoubleSidedGI: 0
  m_CustomRenderQueue: 2450
  stringTagMap:
    RenderType: TransparentCutout
  disabledShaderPasses: []
  m_SavedProperties:
    serializedVersion: 3
    m_TexEnvs:
    - _BumpMap:
        m_Texture: {fileID: 2800000, guid: 1dd8e6549e52bdc44a88ab2651fd4187, type: 3}
        m_Scale: {x: 1, y: 1}
        m_Offset: {x: 0, y: 0}
    - _EmissionMap:
        m_Texture: {fileID: 2800000, guid: 1a93ca33a5378ad488f665dc265057b6, type: 3}
        m_Scale: {x: 1, y: 1}
        m_Offset: {x: 0, y: 0}
    - _MainTex:
        m_Texture: {fileID: 2800000, guid: b233353ea41a76446b3945d51acd1de7, type: 3}
        m_Scale: {x: 1, y: 1}
        m_Offset: {x: 0, y: 0}
    - _OutlineWidthTexture:
        m_Texture: {fileID: 0}
        m_Scale: {x: 1, y: 1}
        m_Offset: {x: 0, y: 0}
    - _ReceiveShadowTexture:
        m_Texture: {fileID: 0}
        m_Scale: {x: 1, y: 1}
        m_Offset: {x: 0, y: 0}
    - _RimTexture:
        m_Texture: {fileID: 0}
        m_Scale: {x: 1, y: 1}
        m_Offset: {x: 0, y: 0}
    - _ShadeTexture:
        m_Texture: {fileID: 2800000, guid: b233353ea41a76446b3945d51acd1de7, type: 3}
        m_Scale: {x: 1, y: 1}
        m_Offset: {x: 0, y: 0}
    - _ShadingGradeTexture:
        m_Texture: {fileID: 0}
        m_Scale: {x: 1, y: 1}
        m_Offset: {x: 0, y: 0}
    - _SphereAdd:
        m_Texture: {fileID: 2800000, guid: 26df07362183a8b4a8f5d6124de68077, type: 3}
        m_Scale: {x: 1, y: 1}
        m_Offset: {x: 0, y: 0}
    - _UvAnimMaskTexture:
        m_Texture: {fileID: 0}
        m_Scale: {x: 1, y: 1}
        m_Offset: {x: 0, y: 0}
    m_Ints: []
    m_Floats:
    - _AlphaToMask: 1
    - _BlendMode: 1
    - _BumpScale: 1
    - _CullMode: 0
    - _Cutoff: 0.5
    - _DebugMode: 0
    - _DstBlend: 0
    - _IndirectLightIntensity: 0.1
    - _LightColorAttenuation: 0
    - _MToonVersion: 38
    - _OutlineColorMode: 0
    - _OutlineCullMode: 1
    - _OutlineLightingMix: 1
    - _OutlineScaledMaxDistance: 1
    - _OutlineWidth: 0.20187473
    - _OutlineWidthMode: 1
    - _ReceiveShadowRate: 1
    - _RimFresnelPower: 100
    - _RimLift: 0.1
    - _RimLightingMix: 0
    - _ShadeShift: 0
    - _ShadeToony: 0.9
    - _ShadingGradeRate: 1
    - _SrcBlend: 1
    - _UvAnimRotation: 0
    - _UvAnimScrollX: 0
    - _UvAnimScrollY: 0
    - _ZWrite: 1
    m_Colors:
    - _Color: {r: 1, g: 1, b: 1, a: 1}
    - _EmissionColor: {r: 0, g: 0, b: 0, a: 1}
    - _OutlineColor: {r: 0.2745098, g: 0.090196066, b: 0.12549016, a: 1}
    - _RimColor: {r: 0.85, g: 0.85, b: 0.85, a: 1}
    - _ShadeColor: {r: 0.8117647, g: 0.8392157, b: 0.9686274, a: 1}
  m_BuildTextureStacks: []
