%YAML 1.1
%TAG !u! tag:unity3d.com,2011:
--- !u!114 &11400000
MonoBehaviour:
  m_ObjectHideFlags: 0
  m_CorrespondingSourceObject: {fileID: 0}
  m_PrefabInstance: {fileID: 0}
  m_PrefabAsset: {fileID: 0}
  m_GameObject: {fileID: 0}
  m_Enabled: 1
  m_EditorHideFlags: 0
  m_Script: {fileID: 11500000, guid: 63b589176a34b344b9ccbee2b7e7114a, type: 3}
  m_Name: Meta
  m_EditorClassIdentifier: 
  ExporterVersion: VRoid Studio-1.11.1
  Title: hiro
  Version: 
  Author: Skyleaft
  ContactInformation: 
  Reference: 
  Thumbnail: {fileID: 2800000, guid: 8eb2e2ca29ff26049b1bcf13cbd910a8, type: 3}
  AllowedUser: 0
  ViolentUssage: 0
  SexualUssage: 0
  CommercialUssage: 0
  OtherPermissionUrl: 
  LicenseType: 0
  OtherLicenseUrl: 
