%YAML 1.1
%TAG !u! tag:unity3d.com,2011:
--- !u!162 &1
EditorUserSettings:
  m_ObjectHideFlags: 0
  serializedVersion: 4
  m_ConfigSettings:
    RecentlyUsedSceneGuid-0:
      value: 0508525400020f5d0b0d5b2749715b4440151a2f7f2e72647e7b1e32e3e3613c
      flags: 0
    RecentlyUsedSceneGuid-1:
      value: 005207050750080a5d5c5f2616750844431649727b2d72622c714b61e6e4366c
      flags: 0
    RecentlyUsedSceneGuid-2:
      value: 55575200000d5e035c0f092344220b44414f497b752b7f632e704a36b1b5356c
      flags: 0
    RecentlyUsedSceneGuid-3:
      value: 5752035357545102585f5d7416745944404f4d73792e7661287b1935b6b8306e
      flags: 0
    RecentlyUsedSceneGuid-4:
      value: 0755000353560c085859547011760c4442151d7f787875657a2d4b35bbb66d60
      flags: 0
    RecentlyUsedSceneGuid-5:
      value: 5708065654025f590e5c0e2742260944154e1d73792e2062797b4e62bbe36669
      flags: 0
    RecentlyUsedSceneGuid-6:
      value: 0154525e07045d5f5e080f2646770a44414f49722f7027647a7f4a6be4b6306b
      flags: 0
    RecentlyUsedSceneGuid-7:
      value: 06060c505503590b0956082311210c44134e4a7f29797f67287b4f32bbb9646c
      flags: 0
    RecentlyUsedSceneGuid-8:
      value: 5702555f51065b08590b092615705d44474e4c7a2e7f24697a2f4d64b5e5646b
      flags: 0
    RecentlyUsedSceneGuid-9:
      value: 0252030555530a5e0e0a5b7a44720e44434e497d2f7c75662f784c61bbb9603a
      flags: 0
    vcSharedLogLevel:
      value: 0d5e400f0650
      flags: 0
  m_VCAutomaticAdd: 1
  m_VCDebugCom: 0
  m_VCDebugCmd: 0
  m_VCDebugOut: 0
  m_SemanticMergeMode: 2
  m_DesiredImportWorkerCount: 1
  m_StandbyImportWorkerCount: 1
  m_IdleImportWorkerShutdownDelay: 60000
  m_VCShowFailedCheckout: 1
  m_VCOverwriteFailedCheckoutAssets: 1
  m_VCProjectOverlayIcons: 1
  m_VCHierarchyOverlayIcons: 1
  m_VCOtherOverlayIcons: 1
  m_VCAllowAsyncUpdate: 1
  m_ArtifactGarbageCollection: 1
